(footprint "D16" (version 20211014) (generator pcbnew)
  (layer "F.Cu")
  (tags "CD74HC4050M96 ")
  (attr smd)
  (fp_text reference "REF**" (at 0 0 unlocked) (layer F.SilkS)
    (effects (font (size 1 1) (thickness 0.15)))
  )
  (fp_text value D16 (at 0 0 unlocked) (layer F.Fab)
    (effects (font (size 1 1) (thickness 0.15)))
  )
  (fp_text user "${REFERENCE}" (at 0 0 unlocked) (layer F.Fab)
    (effects (font (size 1 1) (thickness 0.15)))
  )
  (fp_text user "*" (at -2.87535 -6.096) (layer F.SilkS)
    (effects (font (size 1 1) (thickness 0.15)))
  )
  (fp_text user "*" (at -1.6129 -4.9276) (layer F.Fab)
    (effects (font (size 1 1) (thickness 0.15)))
  )
  (fp_line (start -1.9939 -4.191) (end -1.9939 -4.699) (layer "F.Fab") (width 0.0254))
  (fp_line (start -1.9939 -4.699) (end -3.0988 -4.699) (layer "F.Fab") (width 0.0254))
  (fp_line (start -3.0988 -4.699) (end -3.0988 -4.191) (layer "F.Fab") (width 0.0254))
  (fp_line (start -3.0988 -4.191) (end -1.9939 -4.191) (layer "F.Fab") (width 0.0254))
  (fp_line (start -1.9939 -2.921) (end -1.9939 -3.429) (layer "F.Fab") (width 0.0254))
  (fp_line (start -1.9939 -3.429) (end -3.0988 -3.429) (layer "F.Fab") (width 0.0254))
  (fp_line (start -3.0988 -3.429) (end -3.0988 -2.921) (layer "F.Fab") (width 0.0254))
  (fp_line (start -3.0988 -2.921) (end -1.9939 -2.921) (layer "F.Fab") (width 0.0254))
  (fp_line (start -1.9939 -1.651) (end -1.9939 -2.159) (layer "F.Fab") (width 0.0254))
  (fp_line (start -1.9939 -2.159) (end -3.0988 -2.159) (layer "F.Fab") (width 0.0254))
  (fp_line (start -3.0988 -2.159) (end -3.0988 -1.651) (layer "F.Fab") (width 0.0254))
  (fp_line (start -3.0988 -1.651) (end -1.9939 -1.651) (layer "F.Fab") (width 0.0254))
  (fp_line (start -1.9939 -0.381) (end -1.9939 -0.889) (layer "F.Fab") (width 0.0254))
  (fp_line (start -1.9939 -0.889) (end -3.0988 -0.889) (layer "F.Fab") (width 0.0254))
  (fp_line (start -3.0988 -0.889) (end -3.0988 -0.381) (layer "F.Fab") (width 0.0254))
  (fp_line (start -3.0988 -0.381) (end -1.9939 -0.381) (layer "F.Fab") (width 0.0254))
  (fp_line (start -1.9939 0.889) (end -1.9939 0.381) (layer "F.Fab") (width 0.0254))
  (fp_line (start -1.9939 0.381) (end -3.0988 0.381) (layer "F.Fab") (width 0.0254))
  (fp_line (start -3.0988 0.381) (end -3.0988 0.889) (layer "F.Fab") (width 0.0254))
  (fp_line (start -3.0988 0.889) (end -1.9939 0.889) (layer "F.Fab") (width 0.0254))
  (fp_line (start -1.9939 2.159) (end -1.9939 1.651) (layer "F.Fab") (width 0.0254))
  (fp_line (start -1.9939 1.651) (end -3.0988 1.651) (layer "F.Fab") (width 0.0254))
  (fp_line (start -3.0988 1.651) (end -3.0988 2.159) (layer "F.Fab") (width 0.0254))
  (fp_line (start -3.0988 2.159) (end -1.9939 2.159) (layer "F.Fab") (width 0.0254))
  (fp_line (start -1.9939 3.429) (end -1.9939 2.921) (layer "F.Fab") (width 0.0254))
  (fp_line (start -1.9939 2.921) (end -3.0988 2.921) (layer "F.Fab") (width 0.0254))
  (fp_line (start -3.0988 2.921) (end -3.0988 3.429) (layer "F.Fab") (width 0.0254))
  (fp_line (start -3.0988 3.429) (end -1.9939 3.429) (layer "F.Fab") (width 0.0254))
  (fp_line (start -1.9939 4.699) (end -1.9939 4.191) (layer "F.Fab") (width 0.0254))
  (fp_line (start -1.9939 4.191) (end -3.0988 4.191) (layer "F.Fab") (width 0.0254))
  (fp_line (start -3.0988 4.191) (end -3.0988 4.699) (layer "F.Fab") (width 0.0254))
  (fp_line (start -3.0988 4.699) (end -1.9939 4.699) (layer "F.Fab") (width 0.0254))
  (fp_poly (pts
      (xy 3.7568 2.9845)
      (xy 3.7568 3.3655)
      (xy 3.5028 3.3655)
      (xy 3.5028 2.9845)
    ) (layer "F.SilkS") (width 0) (fill solid))
  (fp_line (start 1.9939 4.191) (end 1.9939 4.699) (layer "F.Fab") (width 0.0254))
  (fp_line (start 1.9939 4.699) (end 3.0988 4.699) (layer "F.Fab") (width 0.0254))
  (fp_line (start 3.0988 4.699) (end 3.0988 4.191) (layer "F.Fab") (width 0.0254))
  (fp_line (start 3.0988 4.191) (end 1.9939 4.191) (layer "F.Fab") (width 0.0254))
  (fp_line (start 1.9939 2.921) (end 1.9939 3.429) (layer "F.Fab") (width 0.0254))
  (fp_line (start 1.9939 3.429) (end 3.0988 3.429) (layer "F.Fab") (width 0.0254))
  (fp_line (start 3.0988 3.429) (end 3.0988 2.921) (layer "F.Fab") (width 0.0254))
  (fp_line (start 3.0988 2.921) (end 1.9939 2.921) (layer "F.Fab") (width 0.0254))
  (fp_line (start 1.9939 1.651) (end 1.9939 2.159) (layer "F.Fab") (width 0.0254))
  (fp_line (start 1.9939 2.159) (end 3.0988 2.159) (layer "F.Fab") (width 0.0254))
  (fp_line (start 3.0988 2.159) (end 3.0988 1.651) (layer "F.Fab") (width 0.0254))
  (fp_line (start 3.0988 1.651) (end 1.9939 1.651) (layer "F.Fab") (width 0.0254))
  (fp_line (start 1.9939 0.381) (end 1.9939 0.889) (layer "F.Fab") (width 0.0254))
  (fp_line (start 1.9939 0.889) (end 3.0988 0.889) (layer "F.Fab") (width 0.0254))
  (fp_line (start 3.0988 0.889) (end 3.0988 0.381) (layer "F.Fab") (width 0.0254))
  (fp_line (start 3.0988 0.381) (end 1.9939 0.381) (layer "F.Fab") (width 0.0254))
  (fp_line (start 1.9939 -0.889) (end 1.9939 -0.381) (layer "F.Fab") (width 0.0254))
  (fp_line (start 1.9939 -0.381) (end 3.0988 -0.381) (layer "F.Fab") (width 0.0254))
  (fp_line (start 3.0988 -0.381) (end 3.0988 -0.889) (layer "F.Fab") (width 0.0254))
  (fp_line (start 3.0988 -0.889) (end 1.9939 -0.889) (layer "F.Fab") (width 0.0254))
  (fp_line (start 1.9939 -2.159) (end 1.9939 -1.651) (layer "F.Fab") (width 0.0254))
  (fp_line (start 1.9939 -1.651) (end 3.0988 -1.651) (layer "F.Fab") (width 0.0254))
  (fp_line (start 3.0988 -1.651) (end 3.0988 -2.159) (layer "F.Fab") (width 0.0254))
  (fp_line (start 3.0988 -2.159) (end 1.9939 -2.159) (layer "F.Fab") (width 0.0254))
  (fp_line (start 1.9939 -3.429) (end 1.9939 -2.921) (layer "F.Fab") (width 0.0254))
  (fp_line (start 1.9939 -2.921) (end 3.0988 -2.921) (layer "F.Fab") (width 0.0254))
  (fp_line (start 3.0988 -2.921) (end 3.0988 -3.429) (layer "F.Fab") (width 0.0254))
  (fp_line (start 3.0988 -3.429) (end 1.9939 -3.429) (layer "F.Fab") (width 0.0254))
  (fp_line (start 1.9939 -4.699) (end 1.9939 -4.191) (layer "F.Fab") (width 0.0254))
  (fp_line (start 1.9939 -4.191) (end 3.0988 -4.191) (layer "F.Fab") (width 0.0254))
  (fp_line (start 3.0988 -4.191) (end 3.0988 -4.699) (layer "F.Fab") (width 0.0254))
  (fp_line (start 3.0988 -4.699) (end 1.9939 -4.699) (layer "F.Fab") (width 0.0254))
  (fp_line (start -3.3504 4.8006) (end -3.3504 -4.8006) (layer "F.CrtYd") (width 0.1524))
  (fp_line (start -3.3504 -4.8006) (end -2.0955 -4.8006) (layer "F.CrtYd") (width 0.1524))
  (fp_line (start -2.0955 -4.8006) (end -2.0955 -5.1054) (layer "F.CrtYd") (width 0.1524))
  (fp_line (start -2.0955 -5.1054) (end 2.0955 -5.1054) (layer "F.CrtYd") (width 0.1524))
  (fp_line (start 2.0955 -5.1054) (end 2.0955 -4.8006) (layer "F.CrtYd") (width 0.1524))
  (fp_line (start 3.3504 -4.8006) (end 2.0955 -4.8006) (layer "F.CrtYd") (width 0.1524))
  (fp_line (start 3.3504 -4.8006) (end 3.3504 4.8006) (layer "F.CrtYd") (width 0.1524))
  (fp_line (start 3.3504 4.8006) (end 2.0955 4.8006) (layer "F.CrtYd") (width 0.1524))
  (fp_line (start 2.0955 4.8006) (end 2.0955 5.1054) (layer "F.CrtYd") (width 0.1524))
  (fp_line (start 2.0955 5.1054) (end -2.0955 5.1054) (layer "F.CrtYd") (width 0.1524))
  (fp_line (start -2.0955 5.1054) (end -2.0955 4.8006) (layer "F.CrtYd") (width 0.1524))
  (fp_line (start -3.3504 4.8006) (end -2.0955 4.8006) (layer "F.CrtYd") (width 0.1524))
  (fp_text user "*" (at -2.87535 -6.096 unlocked) (layer "F.SilkS")
    (effects (font (size 1 1) (thickness 0.15)))
  )
  (fp_text user "*" (at -1.6129 -4.9276 unlocked) (layer "F.Fab")
    (effects (font (size 1 1) (thickness 0.15)))
  )
  (fp_line (start -2.1209 5.1308) (end 2.1209 5.1308) (layer "F.SilkS") (width 0.1524))
  (fp_line (start 2.1209 -5.1308) (end -2.1209 -5.1308) (layer "F.SilkS") (width 0.1524))
  (fp_line (start -1.9939 5.0038) (end 1.9939 5.0038) (layer "F.Fab") (width 0.0254))
  (fp_line (start 1.9939 5.0038) (end 1.9939 -5.0038) (layer "F.Fab") (width 0.0254))
  (fp_line (start 1.9939 -5.0038) (end -1.9939 -5.0038) (layer "F.Fab") (width 0.0254))
  (fp_line (start -1.9939 -5.0038) (end -1.9939 5.0038) (layer "F.Fab") (width 0.0254))
  (fp_arc (start 0.3048 -5.0038) (mid 0 -4.699) (end -0.3048 -5.0038) (layer "F.Fab") (width 0.0254))
  (pad "1" smd rect (at -2.621351 -4.445) (size 1.2549 0.508) (layers "F.Cu" "F.Paste" "F.Mask"))
  (pad "2" smd rect (at -2.621351 -3.175) (size 1.2549 0.508) (layers "F.Cu" "F.Paste" "F.Mask"))
  (pad "3" smd rect (at -2.621351 -1.905) (size 1.2549 0.508) (layers "F.Cu" "F.Paste" "F.Mask"))
  (pad "4" smd rect (at -2.621351 -0.635) (size 1.2549 0.508) (layers "F.Cu" "F.Paste" "F.Mask"))
  (pad "5" smd rect (at -2.621351 0.635) (size 1.2549 0.508) (layers "F.Cu" "F.Paste" "F.Mask"))
  (pad "6" smd rect (at -2.621351 1.905) (size 1.2549 0.508) (layers "F.Cu" "F.Paste" "F.Mask"))
  (pad "7" smd rect (at -2.621351 3.175) (size 1.2549 0.508) (layers "F.Cu" "F.Paste" "F.Mask"))
  (pad "8" smd rect (at -2.621351 4.445) (size 1.2549 0.508) (layers "F.Cu" "F.Paste" "F.Mask"))
  (pad "9" smd rect (at 2.621351 4.445) (size 1.2549 0.508) (layers "F.Cu" "F.Paste" "F.Mask"))
  (pad "10" smd rect (at 2.621351 3.175) (size 1.2549 0.508) (layers "F.Cu" "F.Paste" "F.Mask"))
  (pad "11" smd rect (at 2.621351 1.905) (size 1.2549 0.508) (layers "F.Cu" "F.Paste" "F.Mask"))
  (pad "12" smd rect (at 2.621351 0.635) (size 1.2549 0.508) (layers "F.Cu" "F.Paste" "F.Mask"))
  (pad "13" smd rect (at 2.621351 -0.635) (size 1.2549 0.508) (layers "F.Cu" "F.Paste" "F.Mask"))
  (pad "14" smd rect (at 2.621351 -1.905) (size 1.2549 0.508) (layers "F.Cu" "F.Paste" "F.Mask"))
  (pad "15" smd rect (at 2.621351 -3.175) (size 1.2549 0.508) (layers "F.Cu" "F.Paste" "F.Mask"))
  (pad "16" smd rect (at 2.621351 -4.445) (size 1.2549 0.508) (layers "F.Cu" "F.Paste" "F.Mask"))
)
