(footprint "DCK5_TEX" (version 20211014) (generator pcbnew)
  (layer "F.Cu")
  (tags "OPA838IDCKR ")
  (attr smd)
  (fp_text reference "REF**" (at 0 0 unlocked) (layer F.SilkS)
    (effects (font (size 1 1) (thickness 0.15)))
  )
  (fp_text value DCK5_TEX (at 0 0 unlocked) (layer F.Fab)
    (effects (font (size 1 1) (thickness 0.15)))
  )
  (fp_text user "${REFERENCE}" (at 0 0 unlocked) (layer F.Fab)
    (effects (font (size 1 1) (thickness 0.15)))
  )
  (fp_text user "*" (at -1.27515 -2.0478) (layer F.SilkS)
    (effects (font (size 1 1) (thickness 0.15)))
  )
  (fp_text user "*" (at -0.4445 -1.0826) (layer F.Fab)
    (effects (font (size 1 1) (thickness 0.15)))
  )
  (fp_line (start -0.8001 1.1811) (end -0.8001 0.879) (layer "F.CrtYd") (width 0.1524))
  (fp_line (start -0.8001 0.879) (end -1.4454 0.879) (layer "F.CrtYd") (width 0.1524))
  (fp_line (start -1.4454 0.879) (end -1.4454 -0.879) (layer "F.CrtYd") (width 0.1524))
  (fp_line (start -1.4454 -0.879) (end -0.8001 -0.879) (layer "F.CrtYd") (width 0.1524))
  (fp_line (start -0.8001 -0.879) (end -0.8001 -1.1811) (layer "F.CrtYd") (width 0.1524))
  (fp_line (start -0.8001 -1.1811) (end 0.8001 -1.1811) (layer "F.CrtYd") (width 0.1524))
  (fp_line (start 0.8001 -1.1811) (end 0.8001 -0.879) (layer "F.CrtYd") (width 0.1524))
  (fp_line (start 0.8001 -0.879) (end 1.4454 -0.879) (layer "F.CrtYd") (width 0.1524))
  (fp_line (start 1.4454 -0.879) (end 1.4454 0.879) (layer "F.CrtYd") (width 0.1524))
  (fp_line (start 1.4454 0.879) (end 0.8001 0.879) (layer "F.CrtYd") (width 0.1524))
  (fp_line (start 0.8001 0.879) (end 0.8001 1.1811) (layer "F.CrtYd") (width 0.1524))
  (fp_line (start 0.8001 1.1811) (end -0.8001 1.1811) (layer "F.CrtYd") (width 0.1524))
  (fp_text user "*" (at -0.4445 -1.0826 unlocked) (layer "F.Fab")
    (effects (font (size 1 1) (thickness 0.15)))
  )
  (fp_text user "*" (at -1.27515 -2.0478 unlocked) (layer "F.SilkS")
    (effects (font (size 1 1) (thickness 0.15)))
  )
  (fp_line (start -0.8255 1.2065) (end 0.8255 1.2065) (layer "F.SilkS") (width 0.1524))
  (fp_line (start 0.8255 0.189859) (end 0.8255 -0.189859) (layer "F.SilkS") (width 0.1524))
  (fp_line (start 0.8255 -1.2065) (end -0.8255 -1.2065) (layer "F.SilkS") (width 0.1524))
  (fp_line (start -0.6985 1.0795) (end 0.6985 1.0795) (layer "F.Fab") (width 0.0254))
  (fp_line (start 0.6985 1.0795) (end 0.6985 -1.0795) (layer "F.Fab") (width 0.0254))
  (fp_line (start 0.6985 -1.0795) (end -0.6985 -1.0795) (layer "F.Fab") (width 0.0254))
  (fp_line (start -0.6985 -1.0795) (end -0.6985 1.0795) (layer "F.Fab") (width 0.0254))
  (fp_arc (start 0.3048 -1.0795) (mid 0 -0.7747) (end -0.3048 -1.0795) (layer "F.Fab") (width 0.0254))
  (fp_line (start -0.6985 -0.4976) (end -0.6985 -0.8024) (layer "F.Fab") (width 0.0254))
  (fp_line (start -0.6985 -0.8024) (end -1.1938 -0.8024) (layer "F.Fab") (width 0.0254))
  (fp_line (start -1.1938 -0.8024) (end -1.1938 -0.4976) (layer "F.Fab") (width 0.0254))
  (fp_line (start -1.1938 -0.4976) (end -0.6985 -0.4976) (layer "F.Fab") (width 0.0254))
  (fp_line (start -0.6985 0.1524) (end -0.6985 -0.1524) (layer "F.Fab") (width 0.0254))
  (fp_line (start -0.6985 -0.1524) (end -1.1938 -0.1524) (layer "F.Fab") (width 0.0254))
  (fp_line (start -1.1938 -0.1524) (end -1.1938 0.1524) (layer "F.Fab") (width 0.0254))
  (fp_line (start -1.1938 0.1524) (end -0.6985 0.1524) (layer "F.Fab") (width 0.0254))
  (fp_line (start -0.6985 0.8024) (end -0.6985 0.4976) (layer "F.Fab") (width 0.0254))
  (fp_line (start -0.6985 0.4976) (end -1.1938 0.4976) (layer "F.Fab") (width 0.0254))
  (fp_line (start -1.1938 0.4976) (end -1.1938 0.8024) (layer "F.Fab") (width 0.0254))
  (fp_line (start -1.1938 0.8024) (end -0.6985 0.8024) (layer "F.Fab") (width 0.0254))
  (fp_line (start 0.6985 0.4976) (end 0.6985 0.8024) (layer "F.Fab") (width 0.0254))
  (fp_line (start 0.6985 0.8024) (end 1.1938 0.8024) (layer "F.Fab") (width 0.0254))
  (fp_line (start 1.1938 0.8024) (end 1.1938 0.4976) (layer "F.Fab") (width 0.0254))
  (fp_line (start 1.1938 0.4976) (end 0.6985 0.4976) (layer "F.Fab") (width 0.0254))
  (fp_line (start 0.6985 -0.8024) (end 0.6985 -0.4976) (layer "F.Fab") (width 0.0254))
  (fp_line (start 0.6985 -0.4976) (end 1.1938 -0.4976) (layer "F.Fab") (width 0.0254))
  (fp_line (start 1.1938 -0.4976) (end 1.1938 -0.8024) (layer "F.Fab") (width 0.0254))
  (fp_line (start 1.1938 -0.8024) (end 0.6985 -0.8024) (layer "F.Fab") (width 0.0254))
  (pad "1" smd rect (at -1.021151 -0.649999) (size 0.6453 0.2548) (layers "F.Cu" "F.Paste" "F.Mask"))
  (pad "2" smd rect (at -1.021151 0) (size 0.6453 0.2548) (layers "F.Cu" "F.Paste" "F.Mask"))
  (pad "3" smd rect (at -1.021151 0.649999) (size 0.6453 0.2548) (layers "F.Cu" "F.Paste" "F.Mask"))
  (pad "4" smd rect (at 1.021151 0.649999) (size 0.6453 0.2548) (layers "F.Cu" "F.Paste" "F.Mask"))
  (pad "5" smd rect (at 1.021151 -0.649999) (size 0.6453 0.2548) (layers "F.Cu" "F.Paste" "F.Mask"))
)
