(footprint "MSOP-8_MS_LIT" (version 20211014) (generator pcbnew)
  (layer "F.Cu")
  (tags "LT1807CMS8-TRPBF ")
  (attr smd)
  (fp_text reference "REF**" (at 0 0 unlocked) (layer F.SilkS)
    (effects (font (size 1 1) (thickness 0.15)))
  )
  (fp_text value MSOP-8_MS_LIT (at 0 0 unlocked) (layer F.Fab)
    (effects (font (size 1 1) (thickness 0.15)))
  )
  (fp_text user "${REFERENCE}" (at 0 0 unlocked) (layer F.Fab)
    (effects (font (size 1 1) (thickness 0.15)))
  )
  (fp_text user "*" (at -2.580049 -2.549) (layer F.SilkS)
    (effects (font (size 1 1) (thickness 0.15)))
  )
  (fp_text user "*" (at -1.1684 -1.4732) (layer F.Fab)
    (effects (font (size 1 1) (thickness 0.15)))
  )
  (fp_line (start -1.5494 -0.7845) (end -1.5494 -1.1655) (layer "F.Fab") (width 0.0254))
  (fp_line (start -1.5494 -1.1655) (end -2.5527 -1.1655) (layer "F.Fab") (width 0.0254))
  (fp_line (start -2.5527 -1.1655) (end -2.5527 -0.7845) (layer "F.Fab") (width 0.0254))
  (fp_line (start -2.5527 -0.7845) (end -1.5494 -0.7845) (layer "F.Fab") (width 0.0254))
  (fp_line (start -1.5494 -0.1345) (end -1.5494 -0.5155) (layer "F.Fab") (width 0.0254))
  (fp_line (start -1.5494 -0.5155) (end -2.5527 -0.5155) (layer "F.Fab") (width 0.0254))
  (fp_line (start -2.5527 -0.5155) (end -2.5527 -0.1345) (layer "F.Fab") (width 0.0254))
  (fp_line (start -2.5527 -0.1345) (end -1.5494 -0.1345) (layer "F.Fab") (width 0.0254))
  (fp_line (start -1.5494 0.5155) (end -1.5494 0.1345) (layer "F.Fab") (width 0.0254))
  (fp_line (start -1.5494 0.1345) (end -2.5527 0.1345) (layer "F.Fab") (width 0.0254))
  (fp_line (start -2.5527 0.1345) (end -2.5527 0.5155) (layer "F.Fab") (width 0.0254))
  (fp_line (start -2.5527 0.5155) (end -1.5494 0.5155) (layer "F.Fab") (width 0.0254))
  (fp_line (start -1.5494 1.1655) (end -1.5494 0.7845) (layer "F.Fab") (width 0.0254))
  (fp_line (start -1.5494 0.7845) (end -2.5527 0.7845) (layer "F.Fab") (width 0.0254))
  (fp_line (start -2.5527 0.7845) (end -2.5527 1.1655) (layer "F.Fab") (width 0.0254))
  (fp_line (start -2.5527 1.1655) (end -1.5494 1.1655) (layer "F.Fab") (width 0.0254))
  (fp_line (start 1.5494 0.7845) (end 1.5494 1.1655) (layer "F.Fab") (width 0.0254))
  (fp_line (start 1.5494 1.1655) (end 2.5527 1.1655) (layer "F.Fab") (width 0.0254))
  (fp_line (start 2.5527 1.1655) (end 2.5527 0.7845) (layer "F.Fab") (width 0.0254))
  (fp_line (start 2.5527 0.7845) (end 1.5494 0.7845) (layer "F.Fab") (width 0.0254))
  (fp_line (start 1.5494 0.1345) (end 1.5494 0.5155) (layer "F.Fab") (width 0.0254))
  (fp_line (start 1.5494 0.5155) (end 2.5527 0.5155) (layer "F.Fab") (width 0.0254))
  (fp_line (start 2.5527 0.5155) (end 2.5527 0.1345) (layer "F.Fab") (width 0.0254))
  (fp_line (start 2.5527 0.1345) (end 1.5494 0.1345) (layer "F.Fab") (width 0.0254))
  (fp_line (start 1.5494 -0.5155) (end 1.5494 -0.1345) (layer "F.Fab") (width 0.0254))
  (fp_line (start 1.5494 -0.1345) (end 2.5527 -0.1345) (layer "F.Fab") (width 0.0254))
  (fp_line (start 2.5527 -0.1345) (end 2.5527 -0.5155) (layer "F.Fab") (width 0.0254))
  (fp_line (start 2.5527 -0.5155) (end 1.5494 -0.5155) (layer "F.Fab") (width 0.0254))
  (fp_line (start 1.5494 -1.1655) (end 1.5494 -0.7845) (layer "F.Fab") (width 0.0254))
  (fp_line (start 1.5494 -0.7845) (end 2.5527 -0.7845) (layer "F.Fab") (width 0.0254))
  (fp_line (start 2.5527 -0.7845) (end 2.5527 -1.1655) (layer "F.Fab") (width 0.0254))
  (fp_line (start 2.5527 -1.1655) (end 1.5494 -1.1655) (layer "F.Fab") (width 0.0254))
  (fp_line (start -3.610699 1.6985) (end -3.610699 -1.6985) (layer "F.CrtYd") (width 0.1524))
  (fp_line (start -3.610699 -1.6985) (end -2.0574 -1.6985) (layer "F.CrtYd") (width 0.1524))
  (fp_line (start -2.0574 -1.6985) (end -2.0574 -2.0574) (layer "F.CrtYd") (width 0.1524))
  (fp_line (start -2.0574 -2.0574) (end 2.0574 -2.0574) (layer "F.CrtYd") (width 0.1524))
  (fp_line (start 2.0574 -2.0574) (end 2.0574 -1.6985) (layer "F.CrtYd") (width 0.1524))
  (fp_line (start 3.610699 -1.6985) (end 2.0574 -1.6985) (layer "F.CrtYd") (width 0.1524))
  (fp_line (start 3.610699 -1.6985) (end 3.610699 1.6985) (layer "F.CrtYd") (width 0.1524))
  (fp_line (start 3.610699 1.6985) (end 2.0574 1.6985) (layer "F.CrtYd") (width 0.1524))
  (fp_line (start 2.0574 1.6985) (end 2.0574 2.0574) (layer "F.CrtYd") (width 0.1524))
  (fp_line (start 2.0574 2.0574) (end -2.0574 2.0574) (layer "F.CrtYd") (width 0.1524))
  (fp_line (start -2.0574 2.0574) (end -2.0574 1.6985) (layer "F.CrtYd") (width 0.1524))
  (fp_line (start -3.610699 1.6985) (end -2.0574 1.6985) (layer "F.CrtYd") (width 0.1524))
  (fp_text user "*" (at -2.580049 -2.549 unlocked) (layer "F.SilkS")
    (effects (font (size 1 1) (thickness 0.15)))
  )
  (fp_text user "*" (at -1.1684 -1.4732 unlocked) (layer "F.Fab")
    (effects (font (size 1 1) (thickness 0.15)))
  )
  (fp_line (start -1.6764 1.6764) (end 1.6764 1.6764) (layer "F.SilkS") (width 0.1524))
  (fp_line (start 1.6764 -1.6764) (end -1.6764 -1.6764) (layer "F.SilkS") (width 0.1524))
  (fp_line (start -1.5494 1.5494) (end 1.5494 1.5494) (layer "F.Fab") (width 0.0254))
  (fp_line (start 1.5494 1.5494) (end 1.5494 -1.5494) (layer "F.Fab") (width 0.0254))
  (fp_line (start 1.5494 -1.5494) (end -1.5494 -1.5494) (layer "F.Fab") (width 0.0254))
  (fp_line (start -1.5494 -1.5494) (end -1.5494 1.5494) (layer "F.Fab") (width 0.0254))
  (fp_arc (start 0.3048 -1.5494) (mid 0 -1.2446) (end -0.3048 -1.5494) (layer "F.Fab") (width 0.0254))
  (pad "1" smd rect (at -2.326051 -0.974999) (size 1.553299 0.431) (layers "F.Cu" "F.Paste" "F.Mask"))
  (pad "2" smd rect (at -2.326051 -0.325001) (size 1.553299 0.431) (layers "F.Cu" "F.Paste" "F.Mask"))
  (pad "3" smd rect (at -2.326051 0.325001) (size 1.553299 0.431) (layers "F.Cu" "F.Paste" "F.Mask"))
  (pad "4" smd rect (at -2.326051 0.974999) (size 1.553299 0.431) (layers "F.Cu" "F.Paste" "F.Mask"))
  (pad "5" smd rect (at 2.326051 0.974999) (size 1.553299 0.431) (layers "F.Cu" "F.Paste" "F.Mask"))
  (pad "6" smd rect (at 2.326051 0.325001) (size 1.553299 0.431) (layers "F.Cu" "F.Paste" "F.Mask"))
  (pad "7" smd rect (at 2.326051 -0.325001) (size 1.553299 0.431) (layers "F.Cu" "F.Paste" "F.Mask"))
  (pad "8" smd rect (at 2.326051 -0.974999) (size 1.553299 0.431) (layers "F.Cu" "F.Paste" "F.Mask"))
)
