M48
; DRILL file {KiCad 7.0.11} date Tue Apr 30 09:09:44 2024
; FORMAT={-:-/ absolute / inch / decimal}
; #@! TF.CreationDate,2024-04-30T09:09:44+02:00
; #@! TF.GenerationSoftware,Kicad,Pcbnew,7.0.11
; #@! TF.FileFunction,Plated,1,2,PTH
FMAT,2
INCH
; #@! TA.AperFunction,Plated,PTH,ViaDrill
T1C0.0118
; #@! TA.AperFunction,Plated,PTH,ComponentDrill
T2C0.0350
; #@! TA.AperFunction,Plated,PTH,ComponentDrill
T3C0.0390
; #@! TA.AperFunction,Plated,PTH,ComponentDrill
T4C0.0400
; #@! TA.AperFunction,Plated,PTH,ComponentDrill
T5C0.0402
; #@! TA.AperFunction,Plated,PTH,ComponentDrill
T6C0.0800
%
G90
G05
T1
X1.0531Y-4.2165
X1.0531Y-4.3681
X1.0531Y-4.5118
X1.0972Y-4.0988
X1.0981Y-4.0232
X1.1122Y-3.6358
X1.1122Y-3.9538
X1.2197Y-3.9438
X1.2422Y-4.1588
X1.278Y-4.1332
X1.315Y-4.4385
X1.315Y-4.5536
X1.3266Y-4.0981
X1.3272Y-3.7339
X1.3348Y-3.9438
X1.3748Y-4.0488
X1.3922Y-4.1038
X1.4072Y-4.3438
X1.5073Y-4.4138
X1.5222Y-4.5018
X1.5548Y-4.2088
X1.6072Y-4.2388
X1.6752Y-1.9407
X1.7122Y-4.3038
X1.7122Y-4.4038
X1.7122Y-4.5038
X1.9552Y-2.0513
X2.0565Y-1.9532
X2.0565Y-2.0532
X2.0571Y-4.2165
X2.0571Y-4.3681
X2.0571Y-4.5118
X2.0752Y-2.2958
X2.1012Y-4.0988
X2.102Y-4.0232
X2.1162Y-3.6358
X2.1162Y-3.9538
X2.2185Y-2.3477
X2.2185Y-2.4619
X2.2236Y-3.9438
X2.2462Y-4.1588
X2.2502Y-1.9532
X2.282Y-4.1332
X2.3189Y-4.4385
X2.3189Y-4.5536
X2.3305Y-4.0981
X2.3312Y-3.7339
X2.3388Y-3.9438
X2.3552Y-1.9006
X2.3788Y-4.0488
X2.3962Y-4.1038
X2.4112Y-4.3438
X2.4578Y-2.0982
X2.5113Y-4.4138
X2.5262Y-4.5018
X2.5552Y-1.7469
X2.5587Y-4.2088
X2.6112Y-4.2388
X2.7161Y-4.3038
X2.7161Y-4.4038
X2.7161Y-4.5038
X2.7879Y-1.5681
X2.8508Y-1.7082
X2.8752Y-1.8182
X2.8752Y-2.3232
X3.0189Y-2.4832
X3.061Y-4.2165
X3.061Y-4.3681
X3.061Y-4.5118
X3.1051Y-4.0988
X3.106Y-4.0232
X3.1201Y-3.6358
X3.1201Y-3.9538
X3.2275Y-3.9438
X3.2501Y-4.1588
X3.2859Y-4.1332
X3.3228Y-4.4385
X3.3228Y-4.5536
X3.3344Y-4.0981
X3.3351Y-3.7339
X3.3427Y-3.9438
X3.3827Y-4.0488
X3.4001Y-4.1038
X3.4151Y-4.3438
X3.5152Y-4.4138
X3.5301Y-4.5018
X3.5626Y-4.2088
X3.6151Y-4.2388
X3.6552Y-1.8082
X3.72Y-4.3038
X3.72Y-4.4038
X3.72Y-4.5038
X4.065Y-4.2165
X4.065Y-4.3681
X4.065Y-4.5118
X4.1091Y-4.0988
X4.1099Y-4.0232
X4.1241Y-3.6358
X4.1241Y-3.9538
X4.2315Y-3.9438
X4.2541Y-4.1588
X4.2898Y-4.1332
X4.3268Y-4.4385
X4.3268Y-4.5536
X4.3384Y-4.0981
X4.3391Y-3.7339
X4.3466Y-3.9438
X4.3866Y-4.0488
X4.4041Y-4.1038
X4.4191Y-4.3438
X4.5191Y-4.4138
X4.5341Y-4.5018
X4.5666Y-4.2088
X4.6191Y-4.2388
X4.724Y-4.3038
X4.724Y-4.4038
X4.724Y-4.5038
T2
X1.4472Y-4.6038
X1.5472Y-4.6038
X2.4512Y-4.6038
X2.5512Y-4.6038
X3.4551Y-4.6038
X3.5551Y-4.6038
X4.4591Y-4.6038
X4.5591Y-4.6038
T3
X2.9252Y-2.1282
X2.9252Y-2.2282
X2.9252Y-2.4282
X2.9252Y-2.5282
X2.9252Y-2.6282
T4
X3.3802Y-1.2582
X3.3802Y-1.3582
X3.3802Y-1.4582
X3.3802Y-1.5582
X3.3802Y-1.6582
X3.3802Y-1.7582
X3.3802Y-1.8582
X3.3802Y-1.9582
X3.3802Y-2.0582
X3.3802Y-2.1582
X3.3802Y-2.2582
X3.3802Y-2.3582
X3.3802Y-2.4582
X3.3802Y-2.5582
X3.3802Y-2.6582
X3.9802Y-1.2582
X3.9802Y-1.3582
X3.9802Y-1.4582
X3.9802Y-1.5582
X3.9802Y-1.6582
X3.9802Y-1.7582
X3.9802Y-1.8582
X3.9802Y-1.9582
X3.9802Y-2.0582
X3.9802Y-2.1582
X3.9802Y-2.2582
X3.9802Y-2.3582
X3.9802Y-2.4582
X3.9802Y-2.5582
X3.9802Y-2.6582
T5
X1.3472Y-3.4358
X1.3472Y-3.554
X1.6209Y-2.5501
X1.6209Y-2.6682
X1.6322Y-3.4457
X1.6322Y-3.5638
X1.6322Y-3.6819
X1.6322Y-3.8001
X1.739Y-2.5501
X1.739Y-2.6682
X1.7504Y-3.4457
X1.7504Y-3.5638
X1.7504Y-3.6819
X1.7504Y-3.8001
X1.8571Y-2.5501
X1.8571Y-2.6682
X1.9752Y-2.5501
X1.9752Y-2.6682
X2.3512Y-3.4358
X2.3512Y-3.554
X2.6362Y-3.4457
X2.6362Y-3.5638
X2.6362Y-3.6819
X2.6362Y-3.8001
X2.7543Y-3.4457
X2.7543Y-3.5638
X2.7543Y-3.6819
X2.7543Y-3.8001
X3.3551Y-3.4358
X3.3551Y-3.554
X3.6401Y-3.4457
X3.6401Y-3.5638
X3.6401Y-3.6819
X3.6401Y-3.8001
X3.7582Y-3.4457
X3.7582Y-3.5638
X3.7582Y-3.6819
X3.7582Y-3.8001
X4.2152Y-1.4939
X4.2152Y-1.612
X4.2152Y-1.7301
X4.2152Y-1.8482
X4.2152Y-2.1732
X4.2152Y-2.2913
X4.2152Y-2.4094
X4.2152Y-2.5275
X4.3333Y-1.4939
X4.3333Y-1.612
X4.3333Y-1.7301
X4.3333Y-1.8482
X4.3333Y-2.1732
X4.3333Y-2.2913
X4.3333Y-2.4094
X4.3333Y-2.5275
X4.3591Y-3.4358
X4.3591Y-3.554
X4.6441Y-3.4457
X4.6441Y-3.5638
X4.6441Y-3.6819
X4.6441Y-3.8001
X4.7622Y-3.4457
X4.7622Y-3.5638
X4.7622Y-3.6819
X4.7622Y-3.8001
T6
X1.2472Y-4.8038
X1.6472Y-4.8038
X2.2512Y-4.8038
X2.6512Y-4.8038
X3.2551Y-4.8038
X3.6551Y-4.8038
X4.2591Y-4.8038
X4.6591Y-4.8038
M30
