%TF.GenerationSoftware,KiCad,Pcbnew,7.0.11*%
%TF.CreationDate,2024-04-30T09:09:56+02:00*%
%TF.ProjectId,muon detector_panel,6d756f6e-2064-4657-9465-63746f725f70,rev?*%
%TF.SameCoordinates,Original*%
%TF.FileFunction,Paste,Top*%
%TF.FilePolarity,Positive*%
%FSLAX46Y46*%
G04 Gerber Fmt 4.6, Leading zero omitted, Abs format (unit mm)*
G04 Created by KiCad (PCBNEW 7.0.11) date 2024-04-30 09:09:56*
%MOMM*%
%LPD*%
G01*
G04 APERTURE LIST*
G04 Aperture macros list*
%AMRoundRect*
0 Rectangle with rounded corners*
0 $1 Rounding radius*
0 $2 $3 $4 $5 $6 $7 $8 $9 X,Y pos of 4 corners*
0 Add a 4 corners polygon primitive as box body*
4,1,4,$2,$3,$4,$5,$6,$7,$8,$9,$2,$3,0*
0 Add four circle primitives for the rounded corners*
1,1,$1+$1,$2,$3*
1,1,$1+$1,$4,$5*
1,1,$1+$1,$6,$7*
1,1,$1+$1,$8,$9*
0 Add four rect primitives between the rounded corners*
20,1,$1+$1,$2,$3,$4,$5,0*
20,1,$1+$1,$4,$5,$6,$7,0*
20,1,$1+$1,$6,$7,$8,$9,0*
20,1,$1+$1,$8,$9,$2,$3,0*%
G04 Aperture macros list end*
%ADD10R,0.845299X0.304800*%
%ADD11RoundRect,0.225000X-0.375000X0.225000X-0.375000X-0.225000X0.375000X-0.225000X0.375000X0.225000X0*%
%ADD12RoundRect,0.250000X0.312500X0.625000X-0.312500X0.625000X-0.312500X-0.625000X0.312500X-0.625000X0*%
%ADD13RoundRect,0.250000X-0.625000X0.312500X-0.625000X-0.312500X0.625000X-0.312500X0.625000X0.312500X0*%
%ADD14RoundRect,0.250000X-0.312500X-0.625000X0.312500X-0.625000X0.312500X0.625000X-0.312500X0.625000X0*%
%ADD15RoundRect,0.250000X-0.325000X-0.650000X0.325000X-0.650000X0.325000X0.650000X-0.325000X0.650000X0*%
%ADD16RoundRect,0.250000X0.625000X-0.312500X0.625000X0.312500X-0.625000X0.312500X-0.625000X-0.312500X0*%
%ADD17RoundRect,0.250000X0.650000X-0.325000X0.650000X0.325000X-0.650000X0.325000X-0.650000X-0.325000X0*%
%ADD18RoundRect,0.250000X0.325000X0.650000X-0.325000X0.650000X-0.325000X-0.650000X0.325000X-0.650000X0*%
%ADD19RoundRect,0.250000X-0.650000X0.325000X-0.650000X-0.325000X0.650000X-0.325000X0.650000X0.325000X0*%
%ADD20R,2.900000X5.400000*%
%ADD21R,1.803400X2.209800*%
%ADD22RoundRect,0.250000X1.000000X-1.750000X1.000000X1.750000X-1.000000X1.750000X-1.000000X-1.750000X0*%
%ADD23RoundRect,0.250000X0.550000X-1.500000X0.550000X1.500000X-0.550000X1.500000X-0.550000X-1.500000X0*%
%ADD24RoundRect,0.250000X0.650000X-1.000000X0.650000X1.000000X-0.650000X1.000000X-0.650000X-1.000000X0*%
%ADD25RoundRect,0.150000X-0.825000X-0.150000X0.825000X-0.150000X0.825000X0.150000X-0.825000X0.150000X0*%
%ADD26R,0.812800X1.143000*%
%ADD27R,1.244600X1.041400*%
%ADD28R,1.600200X1.397000*%
%ADD29R,1.219200X1.854200*%
%ADD30R,1.955800X1.397000*%
G04 APERTURE END LIST*
D10*
%TO.C,U1*%
X108962049Y-104984501D03*
X108962049Y-105634500D03*
X108962049Y-106284499D03*
X111204351Y-106284499D03*
X111204351Y-104984501D03*
%TD*%
D11*
%TO.C,D2*%
X104751000Y-97126500D03*
X104751000Y-100426500D03*
%TD*%
D12*
%TO.C,R13*%
X110404500Y-100173500D03*
X107479500Y-100173500D03*
%TD*%
D13*
%TO.C,R9*%
X113387000Y-101820500D03*
X113387000Y-104745500D03*
%TD*%
D14*
%TO.C,R11*%
X108495500Y-102840500D03*
X111420500Y-102840500D03*
%TD*%
D15*
%TO.C,C6*%
X117039200Y-111857500D03*
X119989200Y-111857500D03*
%TD*%
D13*
%TO.C,R8*%
X109900000Y-107937500D03*
X109900000Y-110862500D03*
%TD*%
D16*
%TO.C,R12*%
X107799000Y-98080000D03*
X107799000Y-95155000D03*
%TD*%
D10*
%TO.C,U3*%
X106634151Y-103490499D03*
X106634151Y-102840500D03*
X106634151Y-102190501D03*
X104391849Y-102190501D03*
X104391849Y-103490499D03*
%TD*%
D16*
%TO.C,R7*%
X109900000Y-115662500D03*
X109900000Y-112737500D03*
%TD*%
D17*
%TO.C,C9*%
X104751000Y-95298500D03*
X104751000Y-92348500D03*
%TD*%
D15*
%TO.C,C4*%
X112215000Y-114346700D03*
X115165000Y-114346700D03*
%TD*%
D14*
%TO.C,R10*%
X113065700Y-106904500D03*
X115990700Y-106904500D03*
%TD*%
D15*
%TO.C,C10*%
X103250000Y-114600000D03*
X106200000Y-114600000D03*
%TD*%
%TO.C,C5*%
X117039200Y-114397500D03*
X119989200Y-114397500D03*
%TD*%
D18*
%TO.C,C11*%
X106200000Y-110950000D03*
X103250000Y-110950000D03*
%TD*%
D15*
%TO.C,C7*%
X117039200Y-109317500D03*
X119989200Y-109317500D03*
%TD*%
D16*
%TO.C,R5*%
X112216800Y-112100800D03*
X112216800Y-109175800D03*
%TD*%
D13*
%TO.C,R6*%
X114786200Y-109186500D03*
X114786200Y-112111500D03*
%TD*%
D19*
%TO.C,C8*%
X115927000Y-101795500D03*
X115927000Y-104745500D03*
%TD*%
D11*
%TO.C,D3*%
X110212000Y-94840500D03*
X110212000Y-98140500D03*
%TD*%
D15*
%TO.C,C12*%
X103250000Y-107100000D03*
X106200000Y-107100000D03*
%TD*%
D10*
%TO.C,U1*%
X83462049Y-104984501D03*
X83462049Y-105634500D03*
X83462049Y-106284499D03*
X85704351Y-106284499D03*
X85704351Y-104984501D03*
%TD*%
D11*
%TO.C,D2*%
X79251000Y-97126500D03*
X79251000Y-100426500D03*
%TD*%
D12*
%TO.C,R13*%
X84904500Y-100173500D03*
X81979500Y-100173500D03*
%TD*%
D13*
%TO.C,R9*%
X87887000Y-101820500D03*
X87887000Y-104745500D03*
%TD*%
D14*
%TO.C,R11*%
X82995500Y-102840500D03*
X85920500Y-102840500D03*
%TD*%
D15*
%TO.C,C6*%
X91539200Y-111857500D03*
X94489200Y-111857500D03*
%TD*%
D13*
%TO.C,R8*%
X84400000Y-107937500D03*
X84400000Y-110862500D03*
%TD*%
D16*
%TO.C,R12*%
X82299000Y-98080000D03*
X82299000Y-95155000D03*
%TD*%
D10*
%TO.C,U3*%
X81134151Y-103490499D03*
X81134151Y-102840500D03*
X81134151Y-102190501D03*
X78891849Y-102190501D03*
X78891849Y-103490499D03*
%TD*%
D16*
%TO.C,R7*%
X84400000Y-115662500D03*
X84400000Y-112737500D03*
%TD*%
D17*
%TO.C,C9*%
X79251000Y-95298500D03*
X79251000Y-92348500D03*
%TD*%
D15*
%TO.C,C4*%
X86715000Y-114346700D03*
X89665000Y-114346700D03*
%TD*%
D14*
%TO.C,R10*%
X87565700Y-106904500D03*
X90490700Y-106904500D03*
%TD*%
D15*
%TO.C,C10*%
X77750000Y-114600000D03*
X80700000Y-114600000D03*
%TD*%
%TO.C,C5*%
X91539200Y-114397500D03*
X94489200Y-114397500D03*
%TD*%
D18*
%TO.C,C11*%
X80700000Y-110950000D03*
X77750000Y-110950000D03*
%TD*%
D15*
%TO.C,C7*%
X91539200Y-109317500D03*
X94489200Y-109317500D03*
%TD*%
D16*
%TO.C,R5*%
X86716800Y-112100800D03*
X86716800Y-109175800D03*
%TD*%
D13*
%TO.C,R6*%
X89286200Y-109186500D03*
X89286200Y-112111500D03*
%TD*%
D19*
%TO.C,C8*%
X90427000Y-101795500D03*
X90427000Y-104745500D03*
%TD*%
D11*
%TO.C,D3*%
X84712000Y-94840500D03*
X84712000Y-98140500D03*
%TD*%
D15*
%TO.C,C12*%
X77750000Y-107100000D03*
X80700000Y-107100000D03*
%TD*%
D10*
%TO.C,U1*%
X57962049Y-104984501D03*
X57962049Y-105634500D03*
X57962049Y-106284499D03*
X60204351Y-106284499D03*
X60204351Y-104984501D03*
%TD*%
D11*
%TO.C,D2*%
X53751000Y-97126500D03*
X53751000Y-100426500D03*
%TD*%
D12*
%TO.C,R13*%
X59404500Y-100173500D03*
X56479500Y-100173500D03*
%TD*%
D13*
%TO.C,R9*%
X62387000Y-101820500D03*
X62387000Y-104745500D03*
%TD*%
D14*
%TO.C,R11*%
X57495500Y-102840500D03*
X60420500Y-102840500D03*
%TD*%
D15*
%TO.C,C6*%
X66039200Y-111857500D03*
X68989200Y-111857500D03*
%TD*%
D13*
%TO.C,R8*%
X58900000Y-107937500D03*
X58900000Y-110862500D03*
%TD*%
D16*
%TO.C,R12*%
X56799000Y-98080000D03*
X56799000Y-95155000D03*
%TD*%
D10*
%TO.C,U3*%
X55634151Y-103490499D03*
X55634151Y-102840500D03*
X55634151Y-102190501D03*
X53391849Y-102190501D03*
X53391849Y-103490499D03*
%TD*%
D16*
%TO.C,R7*%
X58900000Y-115662500D03*
X58900000Y-112737500D03*
%TD*%
D17*
%TO.C,C9*%
X53751000Y-95298500D03*
X53751000Y-92348500D03*
%TD*%
D15*
%TO.C,C4*%
X61215000Y-114346700D03*
X64165000Y-114346700D03*
%TD*%
D14*
%TO.C,R10*%
X62065700Y-106904500D03*
X64990700Y-106904500D03*
%TD*%
D15*
%TO.C,C10*%
X52250000Y-114600000D03*
X55200000Y-114600000D03*
%TD*%
%TO.C,C5*%
X66039200Y-114397500D03*
X68989200Y-114397500D03*
%TD*%
D18*
%TO.C,C11*%
X55200000Y-110950000D03*
X52250000Y-110950000D03*
%TD*%
D15*
%TO.C,C7*%
X66039200Y-109317500D03*
X68989200Y-109317500D03*
%TD*%
D16*
%TO.C,R5*%
X61216800Y-112100800D03*
X61216800Y-109175800D03*
%TD*%
D13*
%TO.C,R6*%
X63786200Y-109186500D03*
X63786200Y-112111500D03*
%TD*%
D19*
%TO.C,C8*%
X64927000Y-101795500D03*
X64927000Y-104745500D03*
%TD*%
D11*
%TO.C,D3*%
X59212000Y-94840500D03*
X59212000Y-98140500D03*
%TD*%
D15*
%TO.C,C12*%
X52250000Y-107100000D03*
X55200000Y-107100000D03*
%TD*%
D11*
%TO.C,D3*%
X33712000Y-94840500D03*
X33712000Y-98140500D03*
%TD*%
D17*
%TO.C,C1*%
X49663000Y-52102000D03*
X49663000Y-49152000D03*
%TD*%
D20*
%TO.C,L1*%
X49766000Y-40721000D03*
X59466000Y-40721000D03*
%TD*%
D21*
%TO.C,J7*%
X63949546Y-59631001D03*
X56349546Y-62531000D03*
X56349546Y-59631001D03*
%TD*%
D16*
%TO.C,R5*%
X35716800Y-112100800D03*
X35716800Y-109175800D03*
%TD*%
D18*
%TO.C,C11*%
X29700000Y-110950000D03*
X26750000Y-110950000D03*
%TD*%
D15*
%TO.C,C5*%
X40539200Y-114397500D03*
X43489200Y-114397500D03*
%TD*%
D19*
%TO.C,C8*%
X39427000Y-101795500D03*
X39427000Y-104745500D03*
%TD*%
D22*
%TO.C,C2*%
X42551000Y-57294000D03*
X42551000Y-49294000D03*
%TD*%
D15*
%TO.C,C10*%
X26750000Y-114600000D03*
X29700000Y-114600000D03*
%TD*%
D14*
%TO.C,R10*%
X36565700Y-106904500D03*
X39490700Y-106904500D03*
%TD*%
D15*
%TO.C,C4*%
X35715000Y-114346700D03*
X38665000Y-114346700D03*
%TD*%
%TO.C,C7*%
X40539200Y-109317500D03*
X43489200Y-109317500D03*
%TD*%
D17*
%TO.C,C9*%
X28251000Y-95298500D03*
X28251000Y-92348500D03*
%TD*%
D16*
%TO.C,R7*%
X33400000Y-115662500D03*
X33400000Y-112737500D03*
%TD*%
D15*
%TO.C,C12*%
X26750000Y-107100000D03*
X29700000Y-107100000D03*
%TD*%
D10*
%TO.C,U3*%
X30134151Y-103490499D03*
X30134151Y-102840500D03*
X30134151Y-102190501D03*
X27891849Y-102190501D03*
X27891849Y-103490499D03*
%TD*%
D23*
%TO.C,C3*%
X64903000Y-49771000D03*
X64903000Y-44371000D03*
%TD*%
D13*
%TO.C,R8*%
X33400000Y-107937500D03*
X33400000Y-110862500D03*
%TD*%
%TO.C,R2*%
X59823000Y-48275500D03*
X59823000Y-51200500D03*
%TD*%
D16*
%TO.C,R4*%
X50171000Y-58312500D03*
X50171000Y-55387500D03*
%TD*%
D15*
%TO.C,C6*%
X40539200Y-111857500D03*
X43489200Y-111857500D03*
%TD*%
D24*
%TO.C,D1*%
X46107000Y-45896000D03*
X46107000Y-41896000D03*
%TD*%
D13*
%TO.C,R6*%
X38286200Y-109186500D03*
X38286200Y-112111500D03*
%TD*%
D25*
%TO.C,U2*%
X52235000Y-48341000D03*
X52235000Y-49611000D03*
X52235000Y-50881000D03*
X52235000Y-52151000D03*
X57185000Y-52151000D03*
X57185000Y-50881000D03*
X57185000Y-49611000D03*
X57185000Y-48341000D03*
%TD*%
D14*
%TO.C,R11*%
X31995500Y-102840500D03*
X34920500Y-102840500D03*
%TD*%
D13*
%TO.C,R9*%
X36887000Y-101820500D03*
X36887000Y-104745500D03*
%TD*%
D26*
%TO.C,J6*%
X76311400Y-39830001D03*
X75211400Y-39830001D03*
X74111399Y-39830001D03*
X73011399Y-39830001D03*
X71911399Y-39830001D03*
X70811398Y-39830001D03*
X69711401Y-39830001D03*
X68611400Y-39830001D03*
D27*
X78946401Y-33680001D03*
X78946401Y-29980001D03*
D28*
X78771400Y-39705000D03*
D29*
X67451400Y-39480002D03*
D30*
X69476410Y-29005001D03*
X75446411Y-29005001D03*
%TD*%
D12*
%TO.C,R13*%
X33904500Y-100173500D03*
X30979500Y-100173500D03*
%TD*%
%TO.C,R1*%
X62428500Y-53294000D03*
X59503500Y-53294000D03*
%TD*%
D16*
%TO.C,R12*%
X31299000Y-98080000D03*
X31299000Y-95155000D03*
%TD*%
D11*
%TO.C,D2*%
X28251000Y-97126500D03*
X28251000Y-100426500D03*
%TD*%
D16*
%TO.C,R3*%
X52711000Y-58312500D03*
X52711000Y-55387500D03*
%TD*%
D10*
%TO.C,U1*%
X32462049Y-104984501D03*
X32462049Y-105634500D03*
X32462049Y-106284499D03*
X34704351Y-106284499D03*
X34704351Y-104984501D03*
%TD*%
M02*
