(kicad_symbol_lib (version 20220914) (generator kicad_symbol_editor)
  (symbol "1040310811" (pin_names (offset 0.254)) (in_bom yes) (on_board yes)
    (property "Reference" "J" (at 27.94 10.16 0)
      (effects (font (size 1.524 1.524)))
    )
    (property "Value" "1040310811" (at 27.94 7.62 0)
      (effects (font (size 1.524 1.524)))
    )
    (property "Footprint" "104031-0811_MOL" (at 0 0 0)
      (effects (font (size 1.27 1.27) italic) hide)
    )
    (property "Datasheet" "1040310811" (at 0 0 0)
      (effects (font (size 1.27 1.27) italic) hide)
    )
    (property "ki_locked" "" (at 0 0 0)
      (effects (font (size 1.27 1.27)))
    )
    (property "ki_keywords" "1040310811" (at 0 0 0)
      (effects (font (size 1.27 1.27)) hide)
    )
    (property "ki_fp_filters" "104031-0811_MOL" (at 0 0 0)
      (effects (font (size 1.27 1.27)) hide)
    )
    (symbol "1040310811_0_1"
      (polyline
        (pts
          (xy 7.62 -15.24)
          (xy 48.26 -15.24)
        )
        (stroke (width 0.127) (type default))
        (fill (type none))
      )
      (polyline
        (pts
          (xy 7.62 5.08)
          (xy 7.62 -15.24)
        )
        (stroke (width 0.127) (type default))
        (fill (type none))
      )
      (polyline
        (pts
          (xy 48.26 -15.24)
          (xy 48.26 5.08)
        )
        (stroke (width 0.127) (type default))
        (fill (type none))
      )
      (polyline
        (pts
          (xy 48.26 5.08)
          (xy 7.62 5.08)
        )
        (stroke (width 0.127) (type default))
        (fill (type none))
      )
      (pin bidirectional line (at 0 0 0) (length 7.62)
        (name "DAT2" (effects (font (size 1.27 1.27))))
        (number "1" (effects (font (size 1.27 1.27))))
      )
      (pin unspecified line (at 55.88 0 180) (length 7.62)
        (name "SW_DETECT" (effects (font (size 1.27 1.27))))
        (number "10" (effects (font (size 1.27 1.27))))
      )
      (pin bidirectional line (at 0 -2.54 0) (length 7.62)
        (name "CD/DAT3" (effects (font (size 1.27 1.27))))
        (number "2" (effects (font (size 1.27 1.27))))
      )
      (pin unspecified line (at 0 -5.08 0) (length 7.62)
        (name "CMD" (effects (font (size 1.27 1.27))))
        (number "3" (effects (font (size 1.27 1.27))))
      )
      (pin power_in line (at 0 -7.62 0) (length 7.62)
        (name "VDD" (effects (font (size 1.27 1.27))))
        (number "4" (effects (font (size 1.27 1.27))))
      )
      (pin unspecified line (at 0 -10.16 0) (length 7.62)
        (name "CLK" (effects (font (size 1.27 1.27))))
        (number "5" (effects (font (size 1.27 1.27))))
      )
      (pin power_out line (at 55.88 -10.16 180) (length 7.62)
        (name "VSS" (effects (font (size 1.27 1.27))))
        (number "6" (effects (font (size 1.27 1.27))))
      )
      (pin bidirectional line (at 55.88 -7.62 180) (length 7.62)
        (name "DAT0" (effects (font (size 1.27 1.27))))
        (number "7" (effects (font (size 1.27 1.27))))
      )
      (pin bidirectional line (at 55.88 -5.08 180) (length 7.62)
        (name "DAT1" (effects (font (size 1.27 1.27))))
        (number "8" (effects (font (size 1.27 1.27))))
      )
      (pin unspecified line (at 55.88 -2.54 180) (length 7.62)
        (name "SW_DETECT" (effects (font (size 1.27 1.27))))
        (number "9" (effects (font (size 1.27 1.27))))
      )
    )
  )
  (symbol "CD74HC4050M96" (pin_names (offset 0.254)) (in_bom yes) (on_board yes)
    (property "Reference" "U" (at 27.94 10.16 0)
      (effects (font (size 1.524 1.524)))
    )
    (property "Value" "CD74HC4050M96" (at 27.94 7.62 0)
      (effects (font (size 1.524 1.524)))
    )
    (property "Footprint" "D16" (at 0 0 0)
      (effects (font (size 1.27 1.27) italic) hide)
    )
    (property "Datasheet" "CD74HC4050M96" (at 0 0 0)
      (effects (font (size 1.27 1.27) italic) hide)
    )
    (property "ki_locked" "" (at 0 0 0)
      (effects (font (size 1.27 1.27)))
    )
    (property "ki_keywords" "CD74HC4050M96" (at 0 0 0)
      (effects (font (size 1.27 1.27)) hide)
    )
    (property "ki_fp_filters" "D16 D16-M D16-L" (at 0 0 0)
      (effects (font (size 1.27 1.27)) hide)
    )
    (symbol "CD74HC4050M96_0_1"
      (polyline
        (pts
          (xy 7.62 -22.86)
          (xy 48.26 -22.86)
        )
        (stroke (width 0.127) (type default))
        (fill (type none))
      )
      (polyline
        (pts
          (xy 7.62 5.08)
          (xy 7.62 -22.86)
        )
        (stroke (width 0.127) (type default))
        (fill (type none))
      )
      (polyline
        (pts
          (xy 48.26 -22.86)
          (xy 48.26 5.08)
        )
        (stroke (width 0.127) (type default))
        (fill (type none))
      )
      (polyline
        (pts
          (xy 48.26 5.08)
          (xy 7.62 5.08)
        )
        (stroke (width 0.127) (type default))
        (fill (type none))
      )
      (pin power_in line (at 0 0 0) (length 7.62)
        (name "VCC" (effects (font (size 1.27 1.27))))
        (number "1" (effects (font (size 1.27 1.27))))
      )
      (pin output line (at 55.88 -15.24 180) (length 7.62)
        (name "4Y" (effects (font (size 1.27 1.27))))
        (number "10" (effects (font (size 1.27 1.27))))
      )
      (pin input line (at 55.88 -12.7 180) (length 7.62)
        (name "5A" (effects (font (size 1.27 1.27))))
        (number "11" (effects (font (size 1.27 1.27))))
      )
      (pin output line (at 55.88 -10.16 180) (length 7.62)
        (name "5Y" (effects (font (size 1.27 1.27))))
        (number "12" (effects (font (size 1.27 1.27))))
      )
      (pin no_connect line (at 55.88 -7.62 180) (length 7.62)
        (name "NC" (effects (font (size 1.27 1.27))))
        (number "13" (effects (font (size 1.27 1.27))))
      )
      (pin input line (at 55.88 -5.08 180) (length 7.62)
        (name "6A" (effects (font (size 1.27 1.27))))
        (number "14" (effects (font (size 1.27 1.27))))
      )
      (pin output line (at 55.88 -2.54 180) (length 7.62)
        (name "6Y" (effects (font (size 1.27 1.27))))
        (number "15" (effects (font (size 1.27 1.27))))
      )
      (pin no_connect line (at 55.88 0 180) (length 7.62)
        (name "NC" (effects (font (size 1.27 1.27))))
        (number "16" (effects (font (size 1.27 1.27))))
      )
      (pin output line (at 0 -2.54 0) (length 7.62)
        (name "1Y" (effects (font (size 1.27 1.27))))
        (number "2" (effects (font (size 1.27 1.27))))
      )
      (pin input line (at 0 -5.08 0) (length 7.62)
        (name "1A" (effects (font (size 1.27 1.27))))
        (number "3" (effects (font (size 1.27 1.27))))
      )
      (pin output line (at 0 -7.62 0) (length 7.62)
        (name "2Y" (effects (font (size 1.27 1.27))))
        (number "4" (effects (font (size 1.27 1.27))))
      )
      (pin input line (at 0 -10.16 0) (length 7.62)
        (name "2A" (effects (font (size 1.27 1.27))))
        (number "5" (effects (font (size 1.27 1.27))))
      )
      (pin output line (at 0 -12.7 0) (length 7.62)
        (name "3Y" (effects (font (size 1.27 1.27))))
        (number "6" (effects (font (size 1.27 1.27))))
      )
      (pin input line (at 0 -15.24 0) (length 7.62)
        (name "3A" (effects (font (size 1.27 1.27))))
        (number "7" (effects (font (size 1.27 1.27))))
      )
      (pin power_in line (at 0 -17.78 0) (length 7.62)
        (name "GND" (effects (font (size 1.27 1.27))))
        (number "8" (effects (font (size 1.27 1.27))))
      )
      (pin input line (at 55.88 -17.78 180) (length 7.62)
        (name "4A" (effects (font (size 1.27 1.27))))
        (number "9" (effects (font (size 1.27 1.27))))
      )
    )
  )
  (symbol "LT1807CMS8-TRPBF" (pin_names (offset 0.254)) (in_bom yes) (on_board yes)
    (property "Reference" "U" (at 20.32 10.16 0)
      (effects (font (size 1.524 1.524)))
    )
    (property "Value" "LT1807CMS8-TRPBF" (at 20.32 7.62 0)
      (effects (font (size 1.524 1.524)))
    )
    (property "Footprint" "MSOP-8_MS_LIT" (at 0 0 0)
      (effects (font (size 1.27 1.27) italic) hide)
    )
    (property "Datasheet" "LT1807CMS8-TRPBF" (at 0 0 0)
      (effects (font (size 1.27 1.27) italic) hide)
    )
    (property "ki_locked" "" (at 0 0 0)
      (effects (font (size 1.27 1.27)))
    )
    (property "ki_keywords" "LT1807CMS8#TRPBF" (at 0 0 0)
      (effects (font (size 1.27 1.27)) hide)
    )
    (property "ki_fp_filters" "MSOP-8_MS_LIT MSOP-8_MS_LIT-M MSOP-8_MS_LIT-L" (at 0 0 0)
      (effects (font (size 1.27 1.27)) hide)
    )
    (symbol "LT1807CMS8-TRPBF_0_1"
      (polyline
        (pts
          (xy 7.62 -27.94)
          (xy 33.02 -27.94)
        )
        (stroke (width 0.127) (type default))
        (fill (type none))
      )
      (polyline
        (pts
          (xy 7.62 5.08)
          (xy 7.62 -27.94)
        )
        (stroke (width 0.127) (type default))
        (fill (type none))
      )
      (polyline
        (pts
          (xy 33.02 -27.94)
          (xy 33.02 5.08)
        )
        (stroke (width 0.127) (type default))
        (fill (type none))
      )
      (polyline
        (pts
          (xy 33.02 5.08)
          (xy 7.62 5.08)
        )
        (stroke (width 0.127) (type default))
        (fill (type none))
      )
      (pin output line (at 40.64 0 180) (length 7.62)
        (name "OUTA" (effects (font (size 1.27 1.27))))
        (number "1" (effects (font (size 1.27 1.27))))
      )
      (pin input line (at 0 -5.08 0) (length 7.62)
        (name "-INA" (effects (font (size 1.27 1.27))))
        (number "2" (effects (font (size 1.27 1.27))))
      )
      (pin input line (at 0 0 0) (length 7.62)
        (name "+INA" (effects (font (size 1.27 1.27))))
        (number "3" (effects (font (size 1.27 1.27))))
      )
      (pin power_in line (at 0 -20.32 0) (length 7.62)
        (name "V-" (effects (font (size 1.27 1.27))))
        (number "4" (effects (font (size 1.27 1.27))))
      )
      (pin input line (at 0 -2.54 0) (length 7.62)
        (name "+INB" (effects (font (size 1.27 1.27))))
        (number "5" (effects (font (size 1.27 1.27))))
      )
      (pin input line (at 0 -7.62 0) (length 7.62)
        (name "-INB" (effects (font (size 1.27 1.27))))
        (number "6" (effects (font (size 1.27 1.27))))
      )
      (pin output line (at 40.64 -2.54 180) (length 7.62)
        (name "OUTB" (effects (font (size 1.27 1.27))))
        (number "7" (effects (font (size 1.27 1.27))))
      )
      (pin power_in line (at 0 -22.86 0) (length 7.62)
        (name "V+" (effects (font (size 1.27 1.27))))
        (number "8" (effects (font (size 1.27 1.27))))
      )
    )
  )
  (symbol "NANO33IOT" (pin_names (offset 1.016)) (in_bom yes) (on_board yes)
    (property "Reference" "U" (at -12.7 26.67 0)
      (effects (font (size 1.27 1.27)) (justify left bottom))
    )
    (property "Value" "NANO33IOT" (at -12.7 -26.67 0)
      (effects (font (size 1.27 1.27)) (justify left top))
    )
    (property "Footprint" "ABX00027:MODULE_ABX00027" (at 0 0 0)
      (effects (font (size 1.27 1.27)) (justify bottom))
    )
    (property "Datasheet" "" (at 0 0 0)
      (effects (font (size 1.27 1.27)) hide)
    )
    (property "MF" "Arduino" (at 0 0 0)
      (effects (font (size 1.27 1.27)) (justify bottom) hide)
    )
    (property "DESCRIPTION" "ATSAMD21G18A Arduino Nano 33 IoT SAM D ARM® Cortex®-M0+ MCU 32-Bit Embedded Evaluation Board" (at 0 0 0)
      (effects (font (size 1.27 1.27)) (justify bottom) hide)
    )
    (property "PACKAGE" "None" (at 0 0 0)
      (effects (font (size 1.27 1.27)) (justify bottom) hide)
    )
    (property "PRICE" "None" (at 0 0 0)
      (effects (font (size 1.27 1.27)) (justify bottom) hide)
    )
    (property "Package" "None" (at 0 0 0)
      (effects (font (size 1.27 1.27)) (justify bottom) hide)
    )
    (property "Check_prices" "https://www.snapeda.com/parts/Arduino%20Nano%2033%20IoT/Arduino/view-part/?ref=eda" (at 0 0 0)
      (effects (font (size 1.27 1.27)) (justify bottom) hide)
    )
    (property "Price" "None" (at 0 0 0)
      (effects (font (size 1.27 1.27)) (justify bottom) hide)
    )
    (property "SnapEDA_Link" "https://www.snapeda.com/parts/Arduino%20Nano%2033%20IoT/Arduino/view-part/?ref=snap" (at 0 0 0)
      (effects (font (size 1.27 1.27)) (justify bottom) hide)
    )
    (property "MP" "Arduino Nano 33 IoT" (at 0 0 0)
      (effects (font (size 1.27 1.27)) (justify bottom) hide)
    )
    (property "DIGIKEY-PURCHASE-URL" "https://snapeda.com/shop?store=DigiKey&id=3949339" (at 0 0 0)
      (effects (font (size 1.27 1.27)) (justify bottom) hide)
    )
    (property "Availability" "In Stock" (at 0 0 0)
      (effects (font (size 1.27 1.27)) (justify bottom) hide)
    )
    (property "AVAILABILITY" "Unavailable" (at 0 0 0)
      (effects (font (size 1.27 1.27)) (justify bottom) hide)
    )
    (property "Description" "\nAn IoT connected IMU sensor in the Nano form factor.\n" (at 0 0 0)
      (effects (font (size 1.27 1.27)) (justify bottom) hide)
    )
    (symbol "NANO33IOT_0_0"
      (rectangle (start -12.7 -25.4) (end 12.7 25.4)
        (stroke (width 0.254) (type default))
        (fill (type background))
      )
      (pin bidirectional line (at 17.78 -15.24 180) (length 5.08)
        (name "D13" (effects (font (size 1.016 1.016))))
        (number "1" (effects (font (size 1.016 1.016))))
      )
      (pin input line (at -17.78 -10.16 0) (length 5.08)
        (name "A6" (effects (font (size 1.016 1.016))))
        (number "10" (effects (font (size 1.016 1.016))))
      )
      (pin input line (at -17.78 -12.7 0) (length 5.08)
        (name "A7" (effects (font (size 1.016 1.016))))
        (number "11" (effects (font (size 1.016 1.016))))
      )
      (pin power_in line (at 17.78 20.32 180) (length 5.08)
        (name "VUSB" (effects (font (size 1.016 1.016))))
        (number "12" (effects (font (size 1.016 1.016))))
      )
      (pin input line (at -17.78 12.7 0) (length 5.08)
        (name "~{RESET}" (effects (font (size 1.016 1.016))))
        (number "13" (effects (font (size 1.016 1.016))))
      )
      (pin power_in line (at 17.78 -22.86 180) (length 5.08)
        (name "GND" (effects (font (size 1.016 1.016))))
        (number "14" (effects (font (size 1.016 1.016))))
      )
      (pin power_in line (at 17.78 22.86 180) (length 5.08)
        (name "VIN" (effects (font (size 1.016 1.016))))
        (number "15" (effects (font (size 1.016 1.016))))
      )
      (pin bidirectional line (at -17.78 -20.32 0) (length 5.08)
        (name "TX" (effects (font (size 1.016 1.016))))
        (number "16" (effects (font (size 1.016 1.016))))
      )
      (pin bidirectional line (at -17.78 -17.78 0) (length 5.08)
        (name "RX" (effects (font (size 1.016 1.016))))
        (number "17" (effects (font (size 1.016 1.016))))
      )
      (pin input line (at -17.78 12.7 0) (length 5.08)
        (name "~{RESET}" (effects (font (size 1.016 1.016))))
        (number "18" (effects (font (size 1.016 1.016))))
      )
      (pin power_in line (at 17.78 -22.86 180) (length 5.08)
        (name "GND" (effects (font (size 1.016 1.016))))
        (number "19" (effects (font (size 1.016 1.016))))
      )
      (pin power_in line (at 17.78 17.78 180) (length 5.08)
        (name "+3V3" (effects (font (size 1.016 1.016))))
        (number "2" (effects (font (size 1.016 1.016))))
      )
      (pin bidirectional line (at 17.78 12.7 180) (length 5.08)
        (name "D2" (effects (font (size 1.016 1.016))))
        (number "20" (effects (font (size 1.016 1.016))))
      )
      (pin bidirectional line (at 17.78 10.16 180) (length 5.08)
        (name "D3/PWM" (effects (font (size 1.016 1.016))))
        (number "21" (effects (font (size 1.016 1.016))))
      )
      (pin bidirectional line (at 17.78 7.62 180) (length 5.08)
        (name "D4" (effects (font (size 1.016 1.016))))
        (number "22" (effects (font (size 1.016 1.016))))
      )
      (pin bidirectional line (at 17.78 5.08 180) (length 5.08)
        (name "D5/PWM" (effects (font (size 1.016 1.016))))
        (number "23" (effects (font (size 1.016 1.016))))
      )
      (pin bidirectional line (at 17.78 2.54 180) (length 5.08)
        (name "D6/PWM" (effects (font (size 1.016 1.016))))
        (number "24" (effects (font (size 1.016 1.016))))
      )
      (pin bidirectional line (at 17.78 0 180) (length 5.08)
        (name "D7" (effects (font (size 1.016 1.016))))
        (number "25" (effects (font (size 1.016 1.016))))
      )
      (pin bidirectional line (at 17.78 -2.54 180) (length 5.08)
        (name "D8" (effects (font (size 1.016 1.016))))
        (number "26" (effects (font (size 1.016 1.016))))
      )
      (pin bidirectional line (at 17.78 -5.08 180) (length 5.08)
        (name "D9/PWM" (effects (font (size 1.016 1.016))))
        (number "27" (effects (font (size 1.016 1.016))))
      )
      (pin bidirectional line (at 17.78 -7.62 180) (length 5.08)
        (name "D10/PWM" (effects (font (size 1.016 1.016))))
        (number "28" (effects (font (size 1.016 1.016))))
      )
      (pin bidirectional line (at 17.78 -10.16 180) (length 5.08)
        (name "D11/MOSI" (effects (font (size 1.016 1.016))))
        (number "29" (effects (font (size 1.016 1.016))))
      )
      (pin input line (at -17.78 10.16 0) (length 5.08)
        (name "AREF" (effects (font (size 1.016 1.016))))
        (number "3" (effects (font (size 1.016 1.016))))
      )
      (pin bidirectional line (at 17.78 -12.7 180) (length 5.08)
        (name "D12/MISO" (effects (font (size 1.016 1.016))))
        (number "30" (effects (font (size 1.016 1.016))))
      )
      (pin bidirectional line (at -17.78 5.08 0) (length 5.08)
        (name "A0/DAC0" (effects (font (size 1.016 1.016))))
        (number "4" (effects (font (size 1.016 1.016))))
      )
      (pin input line (at -17.78 2.54 0) (length 5.08)
        (name "A1" (effects (font (size 1.016 1.016))))
        (number "5" (effects (font (size 1.016 1.016))))
      )
      (pin input line (at -17.78 0 0) (length 5.08)
        (name "A2" (effects (font (size 1.016 1.016))))
        (number "6" (effects (font (size 1.016 1.016))))
      )
      (pin input line (at -17.78 -2.54 0) (length 5.08)
        (name "A3" (effects (font (size 1.016 1.016))))
        (number "7" (effects (font (size 1.016 1.016))))
      )
      (pin input line (at -17.78 -5.08 0) (length 5.08)
        (name "A4/SDA" (effects (font (size 1.016 1.016))))
        (number "8" (effects (font (size 1.016 1.016))))
      )
      (pin input line (at -17.78 -7.62 0) (length 5.08)
        (name "A5/SCL" (effects (font (size 1.016 1.016))))
        (number "9" (effects (font (size 1.016 1.016))))
      )
    )
  )
  (symbol "OPA838IDCKR" (pin_names (offset 0.254)) (in_bom yes) (on_board yes)
    (property "Reference" "U" (at 20.32 12.7 0)
      (effects (font (size 1.524 1.524)))
    )
    (property "Value" "OPA838IDCKR" (at 20.32 10.16 0)
      (effects (font (size 1.524 1.524)))
    )
    (property "Footprint" "DCK5_TEX" (at 0 0 0)
      (effects (font (size 1.27 1.27) italic) hide)
    )
    (property "Datasheet" "OPA838IDCKR" (at 0 0 0)
      (effects (font (size 1.27 1.27) italic) hide)
    )
    (property "ki_locked" "" (at 0 0 0)
      (effects (font (size 1.27 1.27)))
    )
    (property "ki_keywords" "OPA838IDCKR" (at 0 0 0)
      (effects (font (size 1.27 1.27)) hide)
    )
    (property "ki_fp_filters" "DCK5_TEX DCK5_TEX-M DCK5_TEX-L" (at 0 0 0)
      (effects (font (size 1.27 1.27)) hide)
    )
    (symbol "OPA838IDCKR_0_1"
      (polyline
        (pts
          (xy 7.62 -10.16)
          (xy 33.02 -10.16)
        )
        (stroke (width 0.127) (type default))
        (fill (type none))
      )
      (polyline
        (pts
          (xy 7.62 7.62)
          (xy 7.62 -10.16)
        )
        (stroke (width 0.127) (type default))
        (fill (type none))
      )
      (polyline
        (pts
          (xy 33.02 -10.16)
          (xy 33.02 7.62)
        )
        (stroke (width 0.127) (type default))
        (fill (type none))
      )
      (polyline
        (pts
          (xy 33.02 7.62)
          (xy 7.62 7.62)
        )
        (stroke (width 0.127) (type default))
        (fill (type none))
      )
      (pin output line (at 40.64 2.54 180) (length 7.62)
        (name "VOUT" (effects (font (size 1.27 1.27))))
        (number "1" (effects (font (size 1.27 1.27))))
      )
      (pin unspecified line (at 40.64 -2.54 180) (length 7.62)
        (name "VS-" (effects (font (size 1.27 1.27))))
        (number "2" (effects (font (size 1.27 1.27))))
      )
      (pin unspecified line (at 0 -2.54 0) (length 7.62)
        (name "VIN+" (effects (font (size 1.27 1.27))))
        (number "3" (effects (font (size 1.27 1.27))))
      )
      (pin unspecified line (at 0 0 0) (length 7.62)
        (name "VIN-" (effects (font (size 1.27 1.27))))
        (number "4" (effects (font (size 1.27 1.27))))
      )
      (pin unspecified line (at 40.64 -5.08 180) (length 7.62)
        (name "VS+" (effects (font (size 1.27 1.27))))
        (number "5" (effects (font (size 1.27 1.27))))
      )
    )
  )
  (symbol "PDME2-S12-S5-S" (pin_names (offset 0.254)) (in_bom yes) (on_board yes)
    (property "Reference" "U" (at 20.32 10.16 0)
      (effects (font (size 1.524 1.524)))
    )
    (property "Value" "PDME2-S12-S5-S" (at 20.32 7.62 0)
      (effects (font (size 1.524 1.524)))
    )
    (property "Footprint" "PDME2-S12-S5-S_CUI" (at 0 0 0)
      (effects (font (size 1.27 1.27) italic) hide)
    )
    (property "Datasheet" "PDME2-S12-S5-S" (at 0 0 0)
      (effects (font (size 1.27 1.27) italic) hide)
    )
    (property "ki_keywords" "PDME2-S12-S5-S" (at 0 0 0)
      (effects (font (size 1.27 1.27)) hide)
    )
    (property "ki_fp_filters" "PDME2-S12-S5-S_CUI" (at 0 0 0)
      (effects (font (size 1.27 1.27)) hide)
    )
    (symbol "PDME2-S12-S5-S_0_1"
      (polyline
        (pts
          (xy 7.62 -10.16)
          (xy 33.02 -10.16)
        )
        (stroke (width 0.127) (type default))
        (fill (type none))
      )
      (polyline
        (pts
          (xy 7.62 5.08)
          (xy 7.62 -10.16)
        )
        (stroke (width 0.127) (type default))
        (fill (type none))
      )
      (polyline
        (pts
          (xy 33.02 -10.16)
          (xy 33.02 5.08)
        )
        (stroke (width 0.127) (type default))
        (fill (type none))
      )
      (polyline
        (pts
          (xy 33.02 5.08)
          (xy 7.62 5.08)
        )
        (stroke (width 0.127) (type default))
        (fill (type none))
      )
      (pin unspecified line (at 0 0 0) (length 7.62)
        (name "1" (effects (font (size 1.27 1.27))))
        (number "1" (effects (font (size 1.27 1.27))))
      )
      (pin unspecified line (at 0 -2.54 0) (length 7.62)
        (name "2" (effects (font (size 1.27 1.27))))
        (number "2" (effects (font (size 1.27 1.27))))
      )
      (pin unspecified line (at 40.64 -5.08 180) (length 7.62)
        (name "4" (effects (font (size 1.27 1.27))))
        (number "4" (effects (font (size 1.27 1.27))))
      )
      (pin unspecified line (at 40.64 -2.54 180) (length 7.62)
        (name "5" (effects (font (size 1.27 1.27))))
        (number "5" (effects (font (size 1.27 1.27))))
      )
      (pin unspecified line (at 40.64 0 180) (length 7.62)
        (name "6" (effects (font (size 1.27 1.27))))
        (number "6" (effects (font (size 1.27 1.27))))
      )
    )
  )
  (symbol "PJ1-021-SMT-TR" (pin_names (offset 0.254)) (in_bom yes) (on_board yes)
    (property "Reference" "J" (at 8.89 6.35 0)
      (effects (font (size 1.524 1.524)))
    )
    (property "Value" "PJ1-021-SMT-TR" (at -3.81 6.35 0)
      (effects (font (size 1.524 1.524)))
    )
    (property "Footprint" "CONN3_PJ1-021-SMT-TR_CUD" (at -1.27 3.81 0)
      (effects (font (size 1.27 1.27) italic) hide)
    )
    (property "Datasheet" "PJ1-021-SMT-TR" (at 0 0 0)
      (effects (font (size 1.27 1.27) italic) hide)
    )
    (property "ki_keywords" "PJ1-021-SMT-TR" (at 0 0 0)
      (effects (font (size 1.27 1.27)) hide)
    )
    (property "ki_fp_filters" "CONN3_PJ1-021-SMT-TR_CUD" (at 0 0 0)
      (effects (font (size 1.27 1.27)) hide)
    )
    (symbol "PJ1-021-SMT-TR_1_1"
      (polyline
        (pts
          (xy 5.08 -7.62)
          (xy 12.7 -7.62)
        )
        (stroke (width 0.127) (type default))
        (fill (type none))
      )
      (polyline
        (pts
          (xy 5.08 2.54)
          (xy 5.08 -7.62)
        )
        (stroke (width 0.127) (type default))
        (fill (type none))
      )
      (polyline
        (pts
          (xy 10.16 -5.08)
          (xy 5.08 -5.08)
        )
        (stroke (width 0.127) (type default))
        (fill (type none))
      )
      (polyline
        (pts
          (xy 10.16 -5.08)
          (xy 8.89 -5.9267)
        )
        (stroke (width 0.127) (type default))
        (fill (type none))
      )
      (polyline
        (pts
          (xy 10.16 -5.08)
          (xy 8.89 -4.2333)
        )
        (stroke (width 0.127) (type default))
        (fill (type none))
      )
      (polyline
        (pts
          (xy 10.16 -2.54)
          (xy 5.08 -2.54)
        )
        (stroke (width 0.127) (type default))
        (fill (type none))
      )
      (polyline
        (pts
          (xy 10.16 -2.54)
          (xy 8.89 -3.3867)
        )
        (stroke (width 0.127) (type default))
        (fill (type none))
      )
      (polyline
        (pts
          (xy 10.16 -2.54)
          (xy 8.89 -1.6933)
        )
        (stroke (width 0.127) (type default))
        (fill (type none))
      )
      (polyline
        (pts
          (xy 10.16 0)
          (xy 5.08 0)
        )
        (stroke (width 0.127) (type default))
        (fill (type none))
      )
      (polyline
        (pts
          (xy 10.16 0)
          (xy 8.89 -0.8467)
        )
        (stroke (width 0.127) (type default))
        (fill (type none))
      )
      (polyline
        (pts
          (xy 10.16 0)
          (xy 8.89 0.8467)
        )
        (stroke (width 0.127) (type default))
        (fill (type none))
      )
      (polyline
        (pts
          (xy 12.7 -7.62)
          (xy 12.7 2.54)
        )
        (stroke (width 0.127) (type default))
        (fill (type none))
      )
      (polyline
        (pts
          (xy 12.7 2.54)
          (xy 5.08 2.54)
        )
        (stroke (width 0.127) (type default))
        (fill (type none))
      )
      (pin unspecified line (at 0 0 0) (length 5.08)
        (name "1" (effects (font (size 1.27 1.27))))
        (number "1" (effects (font (size 1.27 1.27))))
      )
      (pin unspecified line (at 0 -5.08 0) (length 5.08)
        (name "2" (effects (font (size 1.27 1.27))))
        (number "2" (effects (font (size 1.27 1.27))))
      )
      (pin unspecified line (at 0 -2.54 0) (length 5.08)
        (name "3" (effects (font (size 1.27 1.27))))
        (number "3" (effects (font (size 1.27 1.27))))
      )
    )
    (symbol "PJ1-021-SMT-TR_1_2"
      (polyline
        (pts
          (xy 5.08 -7.62)
          (xy 12.7 -7.62)
        )
        (stroke (width 0.127) (type default))
        (fill (type none))
      )
      (polyline
        (pts
          (xy 5.08 2.54)
          (xy 5.08 -7.62)
        )
        (stroke (width 0.127) (type default))
        (fill (type none))
      )
      (polyline
        (pts
          (xy 7.62 -5.08)
          (xy 5.08 -5.08)
        )
        (stroke (width 0.127) (type default))
        (fill (type none))
      )
      (polyline
        (pts
          (xy 7.62 -5.08)
          (xy 8.89 -5.9267)
        )
        (stroke (width 0.127) (type default))
        (fill (type none))
      )
      (polyline
        (pts
          (xy 7.62 -5.08)
          (xy 8.89 -4.2333)
        )
        (stroke (width 0.127) (type default))
        (fill (type none))
      )
      (polyline
        (pts
          (xy 7.62 -2.54)
          (xy 5.08 -2.54)
        )
        (stroke (width 0.127) (type default))
        (fill (type none))
      )
      (polyline
        (pts
          (xy 7.62 -2.54)
          (xy 8.89 -3.3867)
        )
        (stroke (width 0.127) (type default))
        (fill (type none))
      )
      (polyline
        (pts
          (xy 7.62 -2.54)
          (xy 8.89 -1.6933)
        )
        (stroke (width 0.127) (type default))
        (fill (type none))
      )
      (polyline
        (pts
          (xy 7.62 0)
          (xy 5.08 0)
        )
        (stroke (width 0.127) (type default))
        (fill (type none))
      )
      (polyline
        (pts
          (xy 7.62 0)
          (xy 8.89 -0.8467)
        )
        (stroke (width 0.127) (type default))
        (fill (type none))
      )
      (polyline
        (pts
          (xy 7.62 0)
          (xy 8.89 0.8467)
        )
        (stroke (width 0.127) (type default))
        (fill (type none))
      )
      (polyline
        (pts
          (xy 12.7 -7.62)
          (xy 12.7 2.54)
        )
        (stroke (width 0.127) (type default))
        (fill (type none))
      )
      (polyline
        (pts
          (xy 12.7 2.54)
          (xy 5.08 2.54)
        )
        (stroke (width 0.127) (type default))
        (fill (type none))
      )
      (pin unspecified line (at 0 0 0) (length 5.08)
        (name "1" (effects (font (size 1.27 1.27))))
        (number "1" (effects (font (size 1.27 1.27))))
      )
      (pin unspecified line (at 0 -5.08 0) (length 5.08)
        (name "2" (effects (font (size 1.27 1.27))))
        (number "2" (effects (font (size 1.27 1.27))))
      )
      (pin unspecified line (at 0 -2.54 0) (length 5.08)
        (name "3" (effects (font (size 1.27 1.27))))
        (number "3" (effects (font (size 1.27 1.27))))
      )
    )
  )
  (symbol "SiPM" (in_bom yes) (on_board yes)
    (property "Reference" "SIPM" (at 0 5.08 0)
      (effects (font (size 1.27 1.27)))
    )
    (property "Value" "" (at 0 6.35 0)
      (effects (font (size 1.27 1.27)))
    )
    (property "Footprint" "" (at 0 6.35 0)
      (effects (font (size 1.27 1.27)) hide)
    )
    (property "Datasheet" "" (at 0 6.35 0)
      (effects (font (size 1.27 1.27)) hide)
    )
    (symbol "SiPM_1_1"
      (rectangle (start -6.35 3.81) (end 6.35 -1.27)
        (stroke (width 0) (type default))
        (fill (type background))
      )
      (pin passive line (at 8.89 0 180) (length 2.54)
        (name "AN_1" (effects (font (size 1.27 1.27))))
        (number "A1" (effects (font (size 1.27 1.27))))
      )
      (pin passive line (at 8.89 2.54 180) (length 2.54)
        (name "CAT_1" (effects (font (size 1.27 1.27))))
        (number "A2" (effects (font (size 1.27 1.27))))
      )
      (pin passive line (at -8.89 0 0) (length 2.54)
        (name "AN_2" (effects (font (size 1.27 1.27))))
        (number "B1" (effects (font (size 1.27 1.27))))
      )
      (pin passive line (at -8.89 2.54 0) (length 2.54)
        (name "CAT_2" (effects (font (size 1.27 1.27))))
        (number "B2" (effects (font (size 1.27 1.27))))
      )
    )
  )
)
